^C:\USERS\DEVON\DOCUMENTS\VISUAL STUDIO 2012\PROJECTS\PRIMSALGO\PRIMSALGO\DEBUG\PRIMSALGO.OBJ|C:\USERS\DEVON\DOCUMENTS\VISUAL STUDIO 2012\PROJECTS\PRIMSALGO\PRIMSALGO\DEBUG\STDAFX.OBJ
C:\USERS\DEVON\DOCUMENTS\VISUAL STUDIO 2012\PROJECTS\PRIMSALGO\DEBUG\PRIMSALGO.ILK
C:\USERS\DEVON\DOCUMENTS\VISUAL STUDIO 2012\PROJECTS\PRIMSALGO\DEBUG\PRIMSALGO.EXE
C:\USERS\DEVON\DOCUMENTS\VISUAL STUDIO 2012\PROJECTS\PRIMSALGO\DEBUG\PRIMSALGO.PDB
