^C:\USERS\DEVON\DOCUMENTS\VISUAL STUDIO 2012\PROJECTS\PRIMS2\PRIMS2\DEBUG\PRIMS2.OBJ|C:\USERS\DEVON\DOCUMENTS\VISUAL STUDIO 2012\PROJECTS\PRIMS2\PRIMS2\DEBUG\STDAFX.OBJ
C:\USERS\DEVON\DOCUMENTS\VISUAL STUDIO 2012\PROJECTS\PRIMS2\DEBUG\PRIMS2.ILK
C:\USERS\DEVON\DOCUMENTS\VISUAL STUDIO 2012\PROJECTS\PRIMS2\DEBUG\PRIMS2.EXE
C:\USERS\DEVON\DOCUMENTS\VISUAL STUDIO 2012\PROJECTS\PRIMS2\DEBUG\PRIMS2.PDB
