^C:\USERS\DEVON\DOCUMENTS\VISUAL STUDIO 2012\PROJECTS\ALGORITMHOMEWORK3\ALGORITMHOMEWORK3\STDAFX.CPP
/c /ZI /nologo /W3 /WX- /sdl /Od /Oy- /D CODE_ANALYSIS /D WIN32 /D _DEBUG /D _CONSOLE /D _UNICODE /D UNICODE /Gm /EHsc /RTC1 /MDd /GS /fp:precise /Zc:wchar_t /Zc:forScope /Yc"stdafx.h" /Fp"DEBUG\ALGORITMHOMEWORK3.PCH.CODEANALYSIS" /Fo"DEBUG\\" /Fd"DEBUG\VC110.PDB" /Gd /TP /analyze /analyze:log "DEBUG\STDAFX.CPP.NATIVECODEANALYSIS.XML" /analyze:pluginlocalespc.dll   /analyze:quiet C:\USERS\DEVON\DOCUMENTS\VISUAL STUDIO 2012\PROJECTS\ALGORITMHOMEWORK3\ALGORITMHOMEWORK3\STDAFX.CPP
^C:\USERS\DEVON\DOCUMENTS\VISUAL STUDIO 2012\PROJECTS\ALGORITMHOMEWORK3\ALGORITMHOMEWORK3\ALGORITMHOMEWORK3.CPP
/c /ZI /nologo /W3 /WX- /sdl /Od /Oy- /D CODE_ANALYSIS /D WIN32 /D _DEBUG /D _CONSOLE /D _UNICODE /D UNICODE /Gm /EHsc /RTC1 /MDd /GS /fp:precise /Zc:wchar_t /Zc:forScope /Yu"stdafx.h" /Fp"DEBUG\ALGORITMHOMEWORK3.PCH.CODEANALYSIS" /Fo"DEBUG\\" /Fd"DEBUG\VC110.PDB" /Gd /TP /analyze /analyze:log "DEBUG\ALGORITMHOMEWORK3.CPP.NATIVECODEANALYSIS.XML" /analyze:pluginlocalespc.dll   /analyze:quiet C:\USERS\DEVON\DOCUMENTS\VISUAL STUDIO 2012\PROJECTS\ALGORITMHOMEWORK3\ALGORITMHOMEWORK3\ALGORITMHOMEWORK3.CPP
